dump.vcd
$date
	Sat Mar 28 13:28:51 2026
$end
$version
	Icarus Verilog
$end
$timescale
	1ps
$end
$scope module tb_power_fsm $end
$var wire 2 ! workload_class [1:0] $end
$var wire 2 " power_state_out [1:0] $end
$var wire 7 # ewma_out [6:0] $end
$var parameter 2 $ STATE_ACTIVE $end
$var parameter 2 % STATE_LOW_POWER $end
$var parameter 2 & STATE_SLEEP $end
$var parameter 2 ' STATE_TURBO $end
$var reg 7 ( activity_count [6:0] $end
$var reg 1 ) clk $end
$var reg 1 * rst_n $end
$var reg 7 + stall_count [6:0] $end
$var reg 1 , thermal_alarm $end
$var reg 1 - window_done $end
$scope function state_name $end
$var reg 2 . s [1:0] $end
$upscope $end
$scope module DUT $end
$var wire 7 / activity_count [6:0] $end
$var wire 1 ) clk $end
$var wire 1 * rst_n $end
$var wire 7 0 stall_count [6:0] $end
$var wire 1 , thermal_alarm $end
$var wire 1 - window_done $end
$var parameter 7 1 ACT_HIGH $end
$var parameter 7 2 ACT_LOW $end
$var parameter 3 3 DWELL $end
$var parameter 7 4 STALL_HIGH $end
$var parameter 2 5 STATE_ACTIVE $end
$var parameter 2 6 STATE_LOW_POWER $end
$var parameter 2 7 STATE_SLEEP $end
$var parameter 2 8 STATE_TURBO $end
$var parameter 2 9 WL_BURSTY $end
$var parameter 2 : WL_COMPUTE $end
$var parameter 2 ; WL_IDLE $end
$var parameter 2 < WL_SUSTAINED $end
$var reg 3 = dn_dwell [2:0] $end
$var reg 10 > ewma_accum [9:0] $end
$var reg 7 ? ewma_out [6:0] $end
$var reg 2 @ power_state_out [1:0] $end
$var reg 3 A up_dwell [2:0] $end
$var reg 2 B workload_class [1:0] $end
$upscope $end
$scope task check_state $end
$var reg 2 C expected [1:0] $end
$var reg 64 D test_num [63:0] $end
$upscope $end
$scope task send_window $end
$var reg 7 E act_cnt [6:0] $end
$var reg 7 F stl_cnt [6:0] $end
$var reg 1 G therm $end
$upscope $end
$upscope $end
$enddefinitions $end
$comment Show the parameter values. $end
$dumpall
b11 <
b0 ;
b10 :
b1 9
b11 8
b0 7
b1 6
b10 5
b110010 4
b1 3
b10100 2
b1001011 1
b11 '
b0 &
b1 %
b10 $
$end
#0
$dumpvars
xG
bx F
bx E
bx D
bx C
b0 B
b0 A
b0 @
b0 ?
b0 >
b0 =
b0 0
b0 /
bx .
0-
0,
b0 +
0*
0)
b0 (
b0 #
b0 "
b0 !
$end
#5000
1)
#10000
0)
#15000
1)
#20000
0)
#25000
1*
1)
#30000
0)
#35000
b1010 +
b1010 0
b1010000 (
b1010000 /
0G
b1010 F
b1010000 E
b0 .
1)
#40000
1-
0)
#45000
b10 !
b10 B
b1010000 >
b1 "
b1 @
b0 A
1)
#50000
0-
0)
#55000
b1 D
b1 C
b1 .
1)
#60000
1-
0)
#65000
b1010 #
b1010 ?
b10010110 >
b10 "
b10 @
b0 A
1)
#70000
0-
0)
#75000
b10 C
b10 .
1)
#80000
1-
0)
#85000
b10010 #
b10010 ?
b11010100 >
b11 "
b11 @
b0 A
1)
#90000
0-
0)
#95000
b11 C
b11 .
1)
#100000
1-
0)
#105000
b11010 #
b11010 ?
b100001010 >
b0 A
1)
#110000
0-
0)
#115000
b0 +
b0 0
b1010 (
b1010 /
b0 F
b1010 E
1)
#120000
1-
0)
#125000
b0 !
b0 B
b100001 #
b100001 ?
b11110011 >
b10 "
b10 @
b0 =
1)
#130000
0-
0)
#135000
b10 D
b10 C
b10 .
1)
#140000
1-
0)
#145000
b11110 #
b11110 ?
b11011111 >
b1 "
b1 @
b0 =
1)
#150000
0-
0)
#155000
b1 C
b1 .
1)
#160000
1-
0)
#165000
b11011 #
b11011 ?
b11001110 >
b0 "
b0 @
b0 =
1)
#170000
0-
0)
#175000
b0 C
b0 .
1)
#180000
1-
0)
#185000
b11001 #
b11001 ?
b10111111 >
b0 =
1)
#190000
0-
0)
#195000
b111100 +
b111100 0
b1010000 (
b1010000 /
b111100 F
b1010000 E
1)
#200000
1-
0)
#205000
b1 !
b1 B
b10111 #
b10111 ?
b11111000 >
1)
#210000
0-
0)
#215000
1)
#220000
1-
0)
#225000
b11111 #
b11111 ?
b100101001 >
1)
#230000
0-
0)
#235000
b1010 +
b1010 0
b1010 F
1)
#240000
1-
0)
#245000
b10 !
b10 B
b100101 #
b100101 ?
b101010100 >
b1 "
b1 @
b0 A
1)
#250000
0-
0)
#255000
1)
#260000
1-
0)
#265000
b101010 #
b101010 ?
b101111010 >
b10 "
b10 @
b0 A
1)
#270000
0-
0)
#275000
1)
#280000
1-
0)
#285000
b101111 #
b101111 ?
b110011011 >
b11 "
b11 @
b0 A
1)
#290000
0-
0)
#295000
1,
1G
b11 .
1)
#300000
1-
0)
#305000
b110011 #
b110011 ?
b110111000 >
b1 "
b1 @
1)
#310000
0-
0)
#315000
b1 .
1)
#320000
1-
0)
#325000
b110111 #
b110111 ?
b111010001 >
1)
#330000
0-
0)
#335000
0G
0,
1)
#340000
1-
0)
#345000
b111010 #
b111010 ?
b111100111 >
b10 "
b10 @
b0 A
1)
#350000
0-
0)
#355000
b0 !
b0 B
b0 #
b0 ?
b0 >
b0 "
b0 @
0*
b10 .
1)
#360000
0)
#365000
1)
#370000
0)
#375000
1*
b0 .
1)
